…
Now, try to choose a version of your data that you think will be
appropriate to answer these 2 questions. Use between 4 and 8 functions
that we’ve covered so far (i.e. by filtering, cleaning, tidy’ing,
dropping irrelevant columns, etc.).

<!--------------------------- Start your work below --------------------------->

``` r
#Here is the before of the data:
vancouver_trees
```

    ## # A tibble: 146,611 × 20
    ##    tree_id civic_number std_st…¹ genus…² speci…³ culti…⁴ commo…⁵ assig…⁶ root_…⁷
    ##      <dbl>        <dbl> <chr>    <chr>   <chr>   <chr>   <chr>   <chr>   <chr>  
    ##  1  149556          494 W 58TH … ULMUS   AMERIC… BRANDON BRANDO… N       N      
    ##  2  149563          450 W 58TH … ZELKOVA SERRATA <NA>    JAPANE… N       N      
    ##  3  149579         4994 WINDSOR… STYRAX  JAPONI… <NA>    JAPANE… N       N      
    ##  4  149590          858 E 39TH … FRAXIN… AMERIC… AUTUMN… AUTUMN… Y       N      
    ##  5  149604         5032 WINDSOR… ACER    CAMPES… <NA>    HEDGE … N       N      
    ##  6  149616          585 W 61ST … PYRUS   CALLER… CHANTI… CHANTI… N       N      
    ##  7  149617         4909 SHERBRO… ACER    PLATAN… COLUMN… COLUMN… N       N      
    ##  8  149618         4925 SHERBRO… ACER    PLATAN… COLUMN… COLUMN… N       N      
    ##  9  149619         4969 SHERBRO… ACER    PLATAN… COLUMN… COLUMN… N       N      
    ## 10  149625          720 E 39TH … FRAXIN… AMERIC… AUTUMN… AUTUMN… N       N      
    ## # … with 146,601 more rows, 11 more variables: plant_area <chr>,
    ## #   on_street_block <dbl>, on_street <chr>, street_side_name <chr>,
    ## #   neighbourhood_name <chr>, height_range_id <dbl>, diameter <dbl>,
    ## #   curb <chr>, date_planted <date>, latitude <chr>, longitude <chr>, and
    ## #   abbreviated variable names ¹​std_street, ²​genus_name, ³​species_name,
    ## #   ⁴​cultivar_name, ⁵​common_name, ⁶​assigned, ⁷​root_barrier
…
van_tree_clean
```

    ## # A tibble: 70,063 × 6
    ##    tree_id common_name              height_range_id diameter curb  date_planted
    ##      <dbl> <chr>                              <dbl>    <dbl> <fct> <date>      
    ##  1  258739 VANESSA PERSIAN IRONWOOD               1        3 Yes   2019-07-03  
    ##  2  262107 KWANZAN FLOWERING CHERRY               1        3 Yes   2019-06-16  
    ##  3  262108 KWANZAN FLOWERING CHERRY               1        3 Yes   2019-06-16  
    ##  4  262109 KWANZAN FLOWERING CHERRY               1        3 Yes   2019-06-16  
    ##  5  243526 JAPANESE STEWARTIA                     1        3 Yes   2019-06-13  
    ##  6  262320 FLOWERING ASH                          1        3 Yes   2019-06-03  
    ##  7  262948 VANESSA PERSIAN IRONWOOD               1        3 Yes   2019-05-30  
    ##  8  262950 VANESSA PERSIAN IRONWOOD               1        3 Yes   2019-05-30  
    ##  9  262947 VANESSA PERSIAN IRONWOOD               1        3 Yes   2019-05-30  
    ## 10  262949 VANESSA PERSIAN IRONWOOD               1        3 Yes   2019-05-30  
    ## # … with 70,053 more rows
…
``` r
(van_tree_clean_1 = van_tree_clean %>% 
  mutate(height_id=fct_recode(height_id, "A"= "1","A"= "2","A"= "0",
             "B"= "3","B"= "4",
             "C"= "5","C"= "6",
             "D"= "7","D"= "8",
             "E"= "9","E"= "10")))
```

    ## # A tibble: 70,063 × 7
    ##    tree_id common_name              height_ra…¹ diame…² curb  date_pla…³ heigh…⁴
    ##      <dbl> <chr>                          <dbl>   <dbl> <fct> <date>     <fct>  
    ##  1  258739 VANESSA PERSIAN IRONWOOD           1       3 Yes   2019-07-03 A      
    ##  2  262107 KWANZAN FLOWERING CHERRY           1       3 Yes   2019-06-16 A      
    ##  3  262108 KWANZAN FLOWERING CHERRY           1       3 Yes   2019-06-16 A      
    ##  4  262109 KWANZAN FLOWERING CHERRY           1       3 Yes   2019-06-16 A      
    ##  5  243526 JAPANESE STEWARTIA                 1       3 Yes   2019-06-13 A      
    ##  6  262320 FLOWERING ASH                      1       3 Yes   2019-06-03 A      
    ##  7  262948 VANESSA PERSIAN IRONWOOD           1       3 Yes   2019-05-30 A      
    ##  8  262950 VANESSA PERSIAN IRONWOOD           1       3 Yes   2019-05-30 A      
    ##  9  262947 VANESSA PERSIAN IRONWOOD           1       3 Yes   2019-05-30 A      
    ## 10  262949 VANESSA PERSIAN IRONWOOD           1       3 Yes   2019-05-30 A      
    ## # … with 70,053 more rows, and abbreviated variable names ¹​height_range_id,
    ## #   ²​diameter, ³​date_planted, ⁴​height_id
…
