…
``` r
#This function will make just 5 height categories instead of 10 so that the graph will be more clear with the color index. This makes the conclusion easier to interpret. First, I make a new column from height_range_id to modify. Then I mutate that column to recode the levels.
van_tree_clean$height_id=factor(van_tree_clean$height_range_id)
(van_tree_clean_1 = van_tree_clean %>% 
  mutate(height_id=fct_recode(height_id, "A"= "1","A"= "2","A"= "0",
             "B"= "3","B"= "4",
             "C"= "5","C"= "6",
             "D"= "7","D"= "8",
             "E"= "9","E"= "10")))
```

    ## # A tibble: 70,063 × 7
    ##    tree_id common_name              height_ra…¹ diame…² curb  date_pla…³ heigh…⁴
    ##      <dbl> <chr>                          <dbl>   <dbl> <fct> <date>     <fct>  
    ##  1  258739 VANESSA PERSIAN IRONWOOD           1       3 Yes   2019-07-03 A      
    ##  2  262107 KWANZAN FLOWERING CHERRY           1       3 Yes   2019-06-16 A      
    ##  3  262108 KWANZAN FLOWERING CHERRY           1       3 Yes   2019-06-16 A      
    ##  4  262109 KWANZAN FLOWERING CHERRY           1       3 Yes   2019-06-16 A      
    ##  5  243526 JAPANESE STEWARTIA                 1       3 Yes   2019-06-13 A      
    ##  6  262320 FLOWERING ASH                      1       3 Yes   2019-06-03 A      
    ##  7  262948 VANESSA PERSIAN IRONWOOD           1       3 Yes   2019-05-30 A      
    ##  8  262950 VANESSA PERSIAN IRONWOOD           1       3 Yes   2019-05-30 A      
    ##  9  262947 VANESSA PERSIAN IRONWOOD           1       3 Yes   2019-05-30 A      
    ## 10  262949 VANESSA PERSIAN IRONWOOD           1       3 Yes   2019-05-30 A      
    ## # … with 70,053 more rows, and abbreviated variable names ¹​height_range_id,
    ## #   ²​diameter, ³​date_planted, ⁴​height_id
…
